%YAML 1.1
%TAG !u! tag:unity3d.com,2011:
--- !u!1001 &8634375381490700747
PrefabInstance:
  m_ObjectHideFlags: 0
  serializedVersion: 2
  m_Modification:
    m_TransformParent: {fileID: 0}
    m_Modifications:
    - target: {fileID: 158946, guid: 13ed40b5e44888a4d9f2a813ba5cea15, type: 3}
      propertyPath: m_Name
      value: Prop_Streetlight
      objectReference: {fileID: 0}
    - target: {fileID: 421864, guid: 13ed40b5e44888a4d9f2a813ba5cea15, type: 3}
      propertyPath: m_LocalPosition.x
      value: 1.2818642
      objectReference: {fileID: 0}
    - target: {fileID: 421864, guid: 13ed40b5e44888a4d9f2a813ba5cea15, type: 3}
      propertyPath: m_LocalPosition.y
      value: 0.02
      objectReference: {fileID: 0}
    - target: {fileID: 421864, guid: 13ed40b5e44888a4d9f2a813ba5cea15, type: 3}
      propertyPath: m_LocalPosition.z
      value: -0.42040658
      objectReference: {fileID: 0}
    - target: {fileID: 421864, guid: 13ed40b5e44888a4d9f2a813ba5cea15, type: 3}
      propertyPath: m_LocalRotation.x
      value: 0
      objectReference: {fileID: 0}
    - target: {fileID: 421864, guid: 13ed40b5e44888a4d9f2a813ba5cea15, type: 3}
      propertyPath: m_LocalRotation.y
      value: 0
      objectReference: {fileID: 0}
    - target: {fileID: 421864, guid: 13ed40b5e44888a4d9f2a813ba5cea15, type: 3}
      propertyPath: m_LocalRotation.z
      value: 0
      objectReference: {fileID: 0}
    - target: {fileID: 421864, guid: 13ed40b5e44888a4d9f2a813ba5cea15, type: 3}
      propertyPath: m_LocalRotation.w
      value: 1
      objectReference: {fileID: 0}
    - target: {fileID: 421864, guid: 13ed40b5e44888a4d9f2a813ba5cea15, type: 3}
      propertyPath: m_RootOrder
      value: 0
      objectReference: {fileID: 0}
    - target: {fileID: 421864, guid: 13ed40b5e44888a4d9f2a813ba5cea15, type: 3}
      propertyPath: m_LocalEulerAnglesHint.x
      value: 0
      objectReference: {fileID: 0}
    - target: {fileID: 421864, guid: 13ed40b5e44888a4d9f2a813ba5cea15, type: 3}
      propertyPath: m_LocalEulerAnglesHint.y
      value: 0
      objectReference: {fileID: 0}
    - target: {fileID: 421864, guid: 13ed40b5e44888a4d9f2a813ba5cea15, type: 3}
      propertyPath: m_LocalEulerAnglesHint.z
      value: 0
      objectReference: {fileID: 0}
    - target: {fileID: 2384254, guid: 13ed40b5e44888a4d9f2a813ba5cea15, type: 3}
      propertyPath: m_CastShadows
      value: 1
      objectReference: {fileID: 0}
    - target: {fileID: 4035297507134424692, guid: 13ed40b5e44888a4d9f2a813ba5cea15,
        type: 3}
      propertyPath: m_Color.r
      value: 0.9585783
      objectReference: {fileID: 0}
    - target: {fileID: 4035297507134424692, guid: 13ed40b5e44888a4d9f2a813ba5cea15,
        type: 3}
      propertyPath: m_Color.g
      value: 0.9622642
      objectReference: {fileID: 0}
    - target: {fileID: 4035297507134424692, guid: 13ed40b5e44888a4d9f2a813ba5cea15,
        type: 3}
      propertyPath: m_Color.b
      value: 0.5310609
      objectReference: {fileID: 0}
    - target: {fileID: 4035297507134424692, guid: 13ed40b5e44888a4d9f2a813ba5cea15,
        type: 3}
      propertyPath: m_Intensity
      value: 10000
      objectReference: {fileID: 0}
    - target: {fileID: 6880418289560033880, guid: 13ed40b5e44888a4d9f2a813ba5cea15,
        type: 3}
      propertyPath: displayLightIntensity
      value: 10000
      objectReference: {fileID: 0}
    m_RemovedComponents: []
  m_SourcePrefab: {fileID: 100100000, guid: 13ed40b5e44888a4d9f2a813ba5cea15, type: 3}
--- !u!4 &8634375381491121699 stripped
Transform:
  m_CorrespondingSourceObject: {fileID: 421864, guid: 13ed40b5e44888a4d9f2a813ba5cea15,
    type: 3}
  m_PrefabInstance: {fileID: 8634375381490700747}
  m_PrefabAsset: {fileID: 0}
--- !u!1001 &8634375382677358325
PrefabInstance:
  m_ObjectHideFlags: 0
  serializedVersion: 2
  m_Modification:
    m_TransformParent: {fileID: 8634375381491121699}
    m_Modifications:
    - target: {fileID: -927199367670048503, guid: 55ac3c01a0e4d9a429d1010a807fc299,
        type: 3}
      propertyPath: m_Name
      value: VolumetricLightShaft
      objectReference: {fileID: 0}
    - target: {fileID: -4216859302048453862, guid: 55ac3c01a0e4d9a429d1010a807fc299,
        type: 3}
      propertyPath: m_LocalPosition.x
      value: 0.028135777
      objectReference: {fileID: 0}
    - target: {fileID: -4216859302048453862, guid: 55ac3c01a0e4d9a429d1010a807fc299,
        type: 3}
      propertyPath: m_LocalPosition.y
      value: 7.45
      objectReference: {fileID: 0}
    - target: {fileID: -4216859302048453862, guid: 55ac3c01a0e4d9a429d1010a807fc299,
        type: 3}
      propertyPath: m_LocalPosition.z
      value: -1.7395935
      objectReference: {fileID: 0}
    - target: {fileID: -4216859302048453862, guid: 55ac3c01a0e4d9a429d1010a807fc299,
        type: 3}
      propertyPath: m_LocalRotation.x
      value: -0
      objectReference: {fileID: 0}
    - target: {fileID: -4216859302048453862, guid: 55ac3c01a0e4d9a429d1010a807fc299,
        type: 3}
      propertyPath: m_LocalRotation.y
      value: -0
      objectReference: {fileID: 0}
    - target: {fileID: -4216859302048453862, guid: 55ac3c01a0e4d9a429d1010a807fc299,
        type: 3}
      propertyPath: m_LocalRotation.z
      value: -0
      objectReference: {fileID: 0}
    - target: {fileID: -4216859302048453862, guid: 55ac3c01a0e4d9a429d1010a807fc299,
        type: 3}
      propertyPath: m_LocalRotation.w
      value: 1
      objectReference: {fileID: 0}
    - target: {fileID: -4216859302048453862, guid: 55ac3c01a0e4d9a429d1010a807fc299,
        type: 3}
      propertyPath: m_RootOrder
      value: 0
      objectReference: {fileID: 0}
    - target: {fileID: -4216859302048453862, guid: 55ac3c01a0e4d9a429d1010a807fc299,
        type: 3}
      propertyPath: m_LocalEulerAnglesHint.x
      value: 0
      objectReference: {fileID: 0}
    - target: {fileID: -4216859302048453862, guid: 55ac3c01a0e4d9a429d1010a807fc299,
        type: 3}
      propertyPath: m_LocalEulerAnglesHint.y
      value: 0
      objectReference: {fileID: 0}
    - target: {fileID: -4216859302048453862, guid: 55ac3c01a0e4d9a429d1010a807fc299,
        type: 3}
      propertyPath: m_LocalEulerAnglesHint.z
      value: 0
      objectReference: {fileID: 0}
    - target: {fileID: -4216859302048453862, guid: 55ac3c01a0e4d9a429d1010a807fc299,
        type: 3}
      propertyPath: m_LocalScale.y
      value: 3.93759
      objectReference: {fileID: 0}
    - target: {fileID: -1504981713932161579, guid: 55ac3c01a0e4d9a429d1010a807fc299,
        type: 3}
      propertyPath: m_Materials.Array.data[0]
      value: 
      objectReference: {fileID: 2100000, guid: edcb197ee513b8c4883fa2f225e8776e, type: 2}
    - target: {fileID: -1504981713932161579, guid: 55ac3c01a0e4d9a429d1010a807fc299,
        type: 3}
      propertyPath: m_CastShadows
      value: 0
      objectReference: {fileID: 0}
    - target: {fileID: -1504981713932161579, guid: 55ac3c01a0e4d9a429d1010a807fc299,
        type: 3}
      propertyPath: m_RenderingLayerMask
      value: 1
      objectReference: {fileID: 0}
    m_RemovedComponents: []
  m_SourcePrefab: {fileID: 100100000, guid: 55ac3c01a0e4d9a429d1010a807fc299, type: 3}
