%YAML 1.1
%TAG !u! tag:unity3d.com,2011:
--- !u!21 &2100000
Material:
  serializedVersion: 6
  m_ObjectHideFlags: 0
  m_CorrespondingSourceObject: {fileID: 0}
  m_PrefabInstance: {fileID: 0}
  m_PrefabAsset: {fileID: 0}
  m_Name: NUAGE
  m_Shader: {fileID: -6465566751694194690, guid: 17c787b103d9a4447819c16c014ee51f,
    type: 3}
  m_ShaderKeywords: 
  m_LightmapFlags: 4
  m_EnableInstancingVariants: 0
  m_DoubleSidedGI: 0
  m_CustomRenderQueue: -1
  stringTagMap:
    MotionVector: User
  disabledShaderPasses:
  - MOTIONVECTORS
  m_SavedProperties:
    serializedVersion: 3
    m_TexEnvs: []
    m_Floats:
    - Vector1_22156E16: 1
    - Vector1_3BD47D44: 0.65
    - Vector1_52CC3945: 0.07
    - Vector1_53DEE7C6: 1
    - Vector1_5B2973BA: 1.92
    - Vector1_5DC951EC: 0.5
    - Vector1_7982334F: 0
    - Vector1_7AF4FC6A: 0.81
    - Vector1_B8E9B8CC: 0.01
    - Vector1_ED0148D6: 0.589
    - _ALPHA: 0.53
    m_Colors:
    - Color_399D6D27: {r: 0, g: 0, b: 0, a: 0}
    - Color_7AACF5B0: {r: 0.7647059, g: 0.7647059, b: 0.7647059, a: 0}
    - Vector4_5784869F: {r: 0, g: 1, b: -1, a: 0.6}
    - Vector4_A9DFA1C2: {r: 1, g: 0, b: 0, a: 180}
