"ID",anglais,francais
"DEFAULT",DEFAULT TEXT,TEXTE PAR DEFAUT
"ERROR_TITLE_DEFAULT",Error,Erreur
"ACCESS_GREENHOUSE",Greenhouse,Serre
"AR_COMPATIBILITY_DESC",Your phone doesn't support AR,Votre téléphone ne supporte pas l'AR
"AR_COMPATIBILITY_TITLE",AR COMPATIBILITY,COMPATIBILITE AR
"CHANGE_CITY_NAME_WINDOW_CONFIRM_BUTTON",Confirm,Confirmer
"CHANGE_CITY_NAME_WINDOW_INPUT_LABEL","Change city name : ","Changer le nom de la ville : "
"CHANGE_CITY_NAME_WINDOW_TITLE",Change your city name,Change le nom de ta ville
"CITY_HALL_BUILDING_WITHOUT_FULL_ENERGY_STAT","Number of underpowered building : ","Nombre de bâtiments sous alimentés : "
"CITY_HALL_EXPERIENCE_STAT","Experience : ","Expérience : "
"CITY_HALL_LEVEL_STAT","Level : ","Niveau : "
"CITY_HALL_MONEY_PER_HOUR_STAT",Money per hour,Argent par heure
"DEFAULT",DEFAULT TEXT,TEXTE PAR DEFAUT
"ERROR_NOTENOUGHMONEY",anglais_ERROR_NOTENOUGHMONEY,français_ERROR_NOTENOUGHMONEY
"ERROR_TITLE_DEFAULT",Error,Erreur
"GAME_SETTINGS_TITLE",Settings,Paramètres
"INFO_WINDOW_CONFIRM_BUTTON",Confirm,Confirmer
"MISSION_3DWORLD_TEXT_1","Now I'll show you about the coolest thing around here, the <i><u>AR view</u></i> !","Maintenant je vais vous monter la chose la plus cool,<i><u>la vue AR</u></i>!"
"MISSION_3DWORLD_TEXT_2",You can access AR view just by clicking AR button !,Vous pouvez y acceder juste en cliquant sur le bouton AR
"MISSION_3DWORLD_TEXT_3",Back to Management!,Retour au travail !
"MISSION_3DWORLD_TITLE",3D world,Un monde en 3D
"MISSION_BUILDHABITATION_TITLE",Build habitation,Construire un lotissement
"MISSION_BUILDHOUSE_TITLE",Build house,Construire  une maison
"MISSION_BUILDROADS_TITLE",Build road,Construire une route
"MISSION_BUILDWINDTURBINE_TITLE",Build wind turbine,Construire une éolienne
"MISSION_CITY_TEXT_1",You need to expand\n Build a few Houses !,Vous devez vous étendre.\n Construisez
"MISSION_CITY_TEXT_2",Build <b><u>4 House</u></b>,Construire <b><u>4 maisons</u></b>
"MISSION_CITY_TEXT_3",Gigantic!,Superbe !
"MISSION_CITY_TITLE",City,Ville
"MISSION_DEFAULT",anglais_MISSION_DEFAULT,francais_MISSION_DEFAULT
"MISSION_ENERGY_TEXT_1",You can see on upper left that it increases your population,Vous pouvez voir dans le coin en haut à gauche que ça augmente votre population
"MISSION_ENERGY_TEXT_2",But also your pollution! Be careful about it,Mais aussi votre pollution ! Soyez prudent.
"MISSION_ENERGY_TEXT_3","Your house require power to become more effective, let's build a <i><u>wind turbine</u></i>!","Votre maison demande de l'électricité pour être plus efficace, construisons une éolienne !"
"MISSION_ENERGY_TITLE",Energy!,"Energie ! "
"MISSION_FIRSTPLANT_TEXT_1",You did well!,Bien joué !
"MISSION_FIRSTPLANT_TEXT_2",You will be able to harvest it soon enough,Vous serez en mesure de la récolter rapidement
"MISSION_FIRSTPLANT_TITLE",First Plant !,remière découverte
"MISSION_FIRSTSTEP_TEXT_1","Hello, welcome to Proxima !\nI am Proximian and I live on this Planet.",Bonjour et bienvenu sur Proxima ! Je suis un proximian et je vis sur cette planête.
"MISSION_FIRSTSTEP_TEXT_2",You are here to develop your City aren't you? I'll Help you doing so!,Vous êtes ici pour bâtir votre ville n'est-ce pas ? Je vais vous aider dans cette tâche !
"MISSION_FIRSTSTEP_TEXT_3",Let's start by building your first <u><i>house</i></u> !\n Here is some money for you to start with,Commençons par construire votre toute première <u><i>Maison</i></u> !\n ! Voilà un peu d'argent pour vous aider accomplir cette tâche.
"MISSION_FIRSTSTEP_TEXT_4",Well done!\n This house will produce some money and you need to collect it,Bien joué !\n Cette maison va produire de l'argent et vous devez la collecter
"MISSION_FIRSTSTEP_TITLE",First step!,Premier pas !
"MISSION_GREENSEEDING_TEXT_1","Now, I'll show you about one of the most important building, the G<i><u>GreenHouse</u></i>!","Maintenant, je vais vous montrer l'un des bâtiments les plus important, la <i><u>serre</u></i> !"
"MISSION_GREENSEEDING_TEXT_2","You can here plant seeds, giving you rewards!",Vous pouvez y planter des graines qui vous rapporteront des récompenses !
"MISSION_GREENSEEDING_TEXT_3",Start by planting a basic seed!,Commencez par y planter une graine simple !
"MISSION_GREENSEEDING_TITLE",First Plant !,Première découverte
"MISSION_HARVESTSEEDS_TITLE",Harvest Seeds!,Récolter des graines !
"MISSION_HARVESTSEED_TITLE",Harvest seed,Récolter une graine
"MISSION_MIXNPLANT_TEXT_1",Collect now a few seeds to mix them!,Va récolter quelques graines pour les mélanger !
"MISSION_MIXNPLANT_TEXT_2",Go to collect <b><u>2 seeds</u></b>,Récolter <b><u>2 graines</u></b>
"MISSION_MIXNPLANT_TEXT_3",That's great!,C'est génial !
"MISSION_MIXNPLANT_TITLE",Mix n plant,Mélange et plante
"MISSION_MONEY_TEXT_1",You will need some money for later\n Try to gather at least 8000 !,Vous aurez besoin d'argent pour plus tard.\n Essayez de récoltez 8000
"MISSION_MONEY_TEXT_2",Possess <b><u>8000 money</u></b>,Posseder <b><u>8000 d'argent</u></b>
"MISSION_MONEY_TITLE",Money!,Argent !
"MISSION_POWERED_TEXT_1","From now on, you will need more power\n What about a water turbine ?","A partir de là, vous aurez besoin de plus d'electricité.\n Pourquoi ne pas construire une centrale hydrolique ?"
"MISSION_POWERED_TEXT_2",Construct a  <b><u>Water Turbine</u></b>,Construire <b><u>Centrale hydrolique</u></b>
"MISSION_POWERED_TEXT_3",Awesome !,Génial !
"MISSION_POWERED_TITLE",Powered,Evolution
"MISSION_REDUCEPOLLUTION_TITLE",Reduce pollution,Reduire la pollution
"MISSION_ROADS_TITLE",Roads!,Routes !
"MISSION_ROAD_TEXT_1",You can customize your city by adding some roads\nYou can access to the road menu by clicking on the icon in lower right corner,Vous povez personnaliser votre ville en ajoutant des routes. Vous pouvez acceder au menu des routes en clickant sur l'icone en bas à droite.
"MISSION_ROAD_TEXT_2",Let's start by adding <b><u>5 roads</u></b>,Commençons par ajouter <b><u>5 routes</u></b>.
"MISSION_ROAD_TEXT_3",Well done !,Bien joué !
"MISSION_UPGRADE_TEXT_1","Upgrade your houses !\n You can that way have more citizen, and earn more money!",Améliorez vos bâtiments ! Cela vous permettra d'avoir une population plus élevée et de gagner plus d'argent !
"MISSION_UPGRADE_TEXT_2",Possess <b><u>8000 money</u></b>,Posseder <b><u>8000 d'argent</u></b>
"MISSION_UPGRADE_TEXT_3",So rich!,Tellement riche !
"MISSION_UPGRADE_TITLE",UP grade,Augmentation !
"MISSION__TEXT_",Great!,Super !
"MOVING_INFO_TEXT",,
"SELL_CONFIRM_WINDOW_DESCRIPTION",Confirm,Confirmier
"SELL_CONFIRM_WINDOW_TITLE",Selling ?,Vendre ?
"SETTINGS_CLOUD_SAVE",Save in the cloud,Sauvegarder dans le cloud
"SETTINGS_DEBUG_MONEY",Money,Argent
"SETTINGS_MUSIC_TOGGLE","Toggle music : ","Activer la musique : "
"SETTINGS_MUSIC_VOLUME",Music volume :,Volume de la musique :
"SETTINGS_SFX_TOGGLE",Toggle SFX :,Activer les effets :
"SETTINGS_SFX_VOLUME",SFX Settings  :,"Paramètres SFX : "
"SETTINGS_SWITCH_LANGUAGE",Change language,Changer de langue
"TITLE_CONTINUE",Continue,Continuer
"TITLE_EXIT",Quit,Quitter
"TITLE_LOADING",Loading,Chargement
"TITLE_NEWGAME",New Game,Nouvelle Partie
"MISSION_DEMO_START_TEXT_1",Welcome to this demo of Proxima City,Bonjour et bienvenue dans cette démo de Proxima City
"MISSION_DEMO_START_TITLE",Demo,Démo