ID,ID,anglais,francais
DEFAULT,"DEFAULT TEXT","TEXTE PAR DEFAUT","DEFAULT"
ERROR_TITLE_DEFAULT,"Error","Erreur","ERROR_TITLE_DEFAULT"
ERROR_BUILDINGTYPE,"anglais_ERROR_NOTENOUGHSEED","français_ERROR_BUILDINGTYPE","ERROR_BUILDINGTYPE"
ERROR_EMPTYPOS,"anglais_ERROR_EMPTYPOS","français_ERROR_EMPTYPOS","ERROR_EMPTYPOS"
ERROR_EMPTYPOT,"anglais_ERROR_EMPTYPOT","français_ERROR_EMPTYPOT","ERROR_EMPTYPOT"
ERROR_EVENT,"anglais_ERROR_EVENT","français_ERROR_EVENT","ERROR_EVENT"
ERROR_NOENERGY,"anglais_ERROR_NOENERGY","français_ERROR_NOENERGY","ERROR_NOENERGY"
ERROR_NOTEMPTYPOT,"anglais_ERROR_NOTEMPTYPOT","français_ERROR_NOTEMPTYPOT","ERROR_NOTEMPTYPOT"
ERROR_NOTENOUGHMONEY,"anglais_ERROR_NOTENOUGHMONEY","français_ERROR_NOTENOUGHMONEY","ERROR_NOTENOUGHMONEY"
ERROR_NOTENOUGHSEED,"Not enough seed of type %s","Pas assez de graines de type %s","ERROR_NOTENOUGHSEED"
TITLE_CONTINUE,"Continue","Continuer","TITLE_CONTINUE"
TITLE_NEWGAME,"New Game","Nouvelle Partie","TITLE_NEWGAME"
TITLE_EXIT,"Quit","Quitter","TITLE_EXIT"
TITLE_TITLE,"Proxima Cities","Proxima Cities","TITLE_TITLE"
TITLE_LOADING,"Loading%s","Chargement%s","TITLE_LOADING"
SETTINGS_DEBUG_MONEY,"Money","argent","SETTINGS_DEBUG_MONEY"
MISSION_DEFAULT,"This is a mission","Ceci est une mission","MISSION_DEFAULT"
MISSION_BUILDHOUSE_TITLE,"Build house","Construire  une maison","MISSION_BUILDHOUSE_TITLE"
MISSION_BUILDROADS_TITLE,"Build road","Construire une route","MISSION_BUILDROADS_TITLE"
MISSION_BUILDWINDTURBINE_TITLE,"Build wind turbine","Construire une éolienne","MISSION_BUILDWINDTURBINE_TITLE"
MISSION_HARVESTSEED_TITLE,"Harvest seed","Récolter une graine","MISSION_HARVESTSEED_TITLE"
MISSION_BUILDHABITATION_TITLE,"Build habitation","Construire un lotissement","MISSION_BUILDHABITATION_TITLE"
MISSION_USEAR_TITLE,"Use AR!","Utilisez l'AR !","MISSION_USEAR_TITLE"
MISSION_HARVESTSEEDS_TITLE,"Harvest Seeds!","Récolter des graines !","MISSION_HARVESTSEEDS_TITLE"
MISSION_REDUCEPOLLUTION_TITLE,"Reduce pollution","Reduire la pollution ","MISSION_REDUCEPOLLUTION_TITLE"
MISSION_FIRSTSTEP_TITLE,"First step!","Premier pas !","MISSION_FIRSTSTEP_TITLE"
MISSION_FIRSTSTEP_TEXT_1,"Hello and welcome to Proxima !
I am Proximian and I live on this Planet.","Bonjour et bienvenu sur Proxima ! Je suis un proximian et je vis sur cette planête.","MISSION_FIRSTSTEP_TEXT_1"
MISSION_FIRSTSTEP_TEXT_2,"You are here to develop your City aren't you? I'll Help you doing so!","Vous êtes ici pour bâtir votre ville n'est-ce pas ? Je vais vous aider dans cette tâche !","MISSION_FIRSTSTEP_TEXT_2"
MISSION_FIRSTSTEP_TEXT_3,"Let's start by building your first <u><i>house</i></u> !
 Here is some money for you to start with","Commençons par construire votre toute première <u><i>Maison</i></u> !
 ! Voilà un peu d'argent pour vous aider accomplir cette tâche.","MISSION_FIRSTSTEP_TEXT_3"
MISSION_FIRSTSTEP_TEXT_4,"Well done!
 This house will produce some money and you need to collect it","Bien joué !
 Cette maison va produire de l'argent et vous devez la collecter","MISSION_FIRSTSTEP_TEXT_4"
MISSION_ENERGY_TITLE,"Energy!","Energie ! ","MISSION_ENERGY_TITLE"
MISSION_ENERGY_TEXT_1,"You can see on upper left that it increases your population","Vous pouvez voir dans le coin en haut à gauche que ça augmente votre population","MISSION_ENERGY_TEXT_1"
MISSION_ENERGY_TEXT_2,"But also your pollution! Be careful about it","Mais aussi votre pollution ! Soyez prudent.","MISSION_ENERGY_TEXT_2"
MISSION_ENERGY_TEXT_3,"Your house require power to become more effective: let's build a <i><u>wind turbine</u></i>!","Votre maison demande de l'électricité pour être plus efficace: construisons une éolienne !","MISSION_ENERGY_TEXT_3"
MISSION__TEXT_,"Great!","Super !","MISSION__TEXT_"
MISSION_GREENSEEDING_TEXT_1,"Now I'll show you about one of the most important building: the G<i><u>GreenHouse</u></i>!","Maintenant je vais vous montrer l'un des bâtiments les plus important: la <i><u>serre</u></i> !","MISSION_GREENSEEDING_TEXT_1"
MISSION_GREENSEEDING_TEXT_2,"You can plant seeds here. They will give you rewards!","Vous pouvez y planter des graines qui vous rapporteront des récompenses !","MISSION_GREENSEEDING_TEXT_2"
MISSION_GREENSEEDING_TEXT_3,"Start by planting a basic seed!","Commencez par y planter une graine simple !","MISSION_GREENSEEDING_TEXT_3"
MISSION_FIRSTPLANT_TITLE,"First Plant !","Première découverte","MISSION_FIRSTPLANT_TITLE"
ISSION_FIRSTPLANT_TEXT_1,"You did well!","Bien joué !","ISSION_FIRSTPLANT_TEXT_1"
ISSION_FIRSTPLANT_TEXT_2,"You will be able to harvest it soon enough","Vous serez en mesure de la récolter rapidement","ISSION_FIRSTPLANT_TEXT_2"
MISSION_ROADS_TITLE,"Roads!","Routes !","MISSION_ROADS_TITLE"
MISSION_ROAD_TEXT_1,"You can customize your city by adding some roads
You can access to the road menu by clicking on the icon in lower right corner","Vous pouvez personnaliser votre ville en ajoutant des routes. Vous pouvez acceder au menu des routes en clickant sur l'icone en bas à droite.","MISSION_ROAD_TEXT_1"
MISSION_ROAD_TEXT_2,"Let's start by adding <b><u>5 roads</u></b>","Commençons par ajouter <b><u>5 routes</u></b>.","MISSION_ROAD_TEXT_2"
MISSION_ROAD_TEXT_3,"Well done !","Bien joué !","MISSION_ROAD_TEXT_3"
MISSION_3DWORLD_TITLE,"3D world","Un monde en 3D","MISSION_3DWORLD_TITLE"
MISSION_3DWORLD_TEXT_1,"Now I'll show you about the coolest thing around here: the <i><u>AR view</u></i> !","Maintenant je vais vous monter la chose la plus cool: <i><u>la vue AR</u></i>!","MISSION_3DWORLD_TEXT_1"
MISSION_3DWORLD_TEXT_2,"You can access AR view just by clicking AR button !","Vous pouvez y acceder juste en cliquant sur le bouton AR","MISSION_3DWORLD_TEXT_2"
MISSION_3DWORLD_TEXT_3,"Back to Management!","Retour au travail !","MISSION_3DWORLD_TEXT_3"
MISSION_MIXNPLANT_TITLE,"Mix n plant","Mélange et plante ","MISSION_MIXNPLANT_TITLE"
MISSION_MIXNPLANT_TEXT_1,"Collect now a few seeds to mix them!","Va récolter quelques graines pour les mélanger !","MISSION_MIXNPLANT_TEXT_1"
MISSION_MIXNPLANT_TEXT_2,"Go to collect <b><u>2 seeds</u></b>","Récolter <b><u>2 graines</u></b>","MISSION_MIXNPLANT_TEXT_2"
MISSION_MIXNPLANT_TEXT_3,"That's great!","C'est génial !","MISSION_MIXNPLANT_TEXT_3"
MISSION_UPGRADE_TITLE,"UP grade","Augmentation !","MISSION_UPGRADE_TITLE"
MISSION_UPGRADE_TEXT_1,"Upgrade your houses !
 You can that way have more citizen and earn more money!","Améliorez vos bâtiments ! Cela vous permettra d'avoir une population plus élevée et de gagner plus d'argent !","MISSION_UPGRADE_TEXT_1"
MISSION_UPGRADE_TEXT_2,"Upgrade one house to <b><u>Habitation</u></b>","Améliorez une maison en lotissement","MISSION_UPGRADE_TEXT_2"
MISSION_UPGRADE_TEXT_3,"Beautiful!","Magnifique !","MISSION_UPGRADE_TEXT_3"
MISSION_MONEY_TITLE,"Money!","Argent !","MISSION_MONEY_TITLE"
MISSION_MONEY_TEXT_1,"You will need some money for later
 Try to gather at least 8000 !","Vous aurez besoin d'argent pour plus tard.
 Essayez de récoltez 8000 ","MISSION_MONEY_TEXT_1"
MISSION_MONEY_TEXT_2,"Possess <b><u>8000 money</u></b>","Posseder <b><u>8000 d'argent</u></b>","MISSION_MONEY_TEXT_2"
MISSION_MONEY_TEXT_3,"So rich!","Tellement riche !","MISSION_MONEY_TEXT_3"
MISSION_CITY_TITLE,"City","Ville","MISSION_CITY_TITLE"
MISSION_CITY_TEXT_1,"You need to expand
 Build a few Houses !","Vous devez vous étendre.
 Construisez ","MISSION_CITY_TEXT_1"
MISSION_CITY_TEXT_2,"Build <b><u>4 House</u></b>","Construire <b><u>4 maisons</u></b>","MISSION_CITY_TEXT_2"
MISSION_CITY_TEXT_3,"Gigantic!","Superbe !","MISSION_CITY_TEXT_3"
MISSION_POWERED_TITLE,"Powered","Evolution","MISSION_POWERED_TITLE"
MISSION_POWERED_TEXT_1,"From now on you will need more power
 What about a water turbine ?","A partir de maintenant vous allez avoir besoin de plus d'electricité.
 Pourquoi ne pas construire une centrale hydraulique ?","MISSION_POWERED_TEXT_1"
MISSION_POWERED_TEXT_2,"onstruct a  <b><u>Water Turbine</u></b>","Construire <b><u>Centrale hydrolique</u></b>","MISSION_POWERED_TEXT_2"
MISSION_POWERED_TEXT_3,"Awesome !","Génial !","MISSION_POWERED_TEXT_3"
MISSION_DEMO_START_TITLE,"Demo version","Version de démonstration","MISSION_DEMO_START_TITLE"
MISSION_DEMO_START_TEXT_1,"Welcome to this demo of proxima city !","Bienvenue dans la version de démonstration de Proxyma Cities","MISSION_DEMO_START_TEXT_1"
AR_COMPATIBILITY_TITLE,"""","""",""""
AR_COMPATIBILITY_DESC,"""","""",""""
