{
  "type": "service_account",
  "project_id": "proxima-cities-8122097",
  "private_key_id": "2fb2b9cd7a12657863251e2486226e1a9c3441f6",
  "private_key": "-----BEGIN PRIVATE KEY-----\nMIIEvAIBADANBgkqhkiG9w0BAQEFAASCBKYwggSiAgEAAoIBAQCueP2TYNTBUrAo\np4g+0tD7arkttKNQEmVJe/hM77bFEO9FYFzoU3kxWgFU8/017j6KkOII3WRJUlFp\ntLSASVasMjGeZdKcZOSogcWiMy+q6Boj+mwrTlmzoK31vIaXMXFGDvIt9oB5tWKa\n6BXvXkzPKJNX8bZEu281UsDY1AGA56ppI3fq61Xgwm++eHxhItvXS+PlyRsq0xJC\n1rfuOrvdYpKkfTuNJoz6Mshi3iYaQ1+XD0GSxzqjqgiieW48OJy1LDyWUrGUaekL\nzxebJMATki8AJrW8lWQlYuqmKywMql0wkIBACPTqV11ZVUZw/DXoCtrRkBiCZmTC\nPKa4GzaxAgMBAAECggEAAtCVRDd8pTgNmyFNTJirehPoJAdxF0+NqmZlbI3VPreJ\nya5u30lp+BCr+vQzAIfNAuCooeSa+6cYJMa/Xv635xAp/mSFheQHj5uk3euaHDVx\nhwUxMa9qWXBZICDcEcRAn+UJtZG/k78YNbgy8uU8Q18T5fhChNg6iINi1LiyY8NK\nLJPPswLMfRmJruplyLizBeVjHpBpfTy7sP2qYSsL1CnLU2Kq9gMWrqjfB08K+L2+\nrMnAtVzM5yjYKHYP8ouWUDRgKCo8qp6AyQxGWsILbO9Zg1QkHCV+2Xrn99lnyPuh\ngrtFh/RVv9RF6sUWWxPobhVKv+fmjQSchjoZEj11oQKBgQDvNU8Cq0Ea39FkUKOc\nXcB+29NAZEGYrc1ExZCNpy1uU/mgS6JY7VK5IJtG0/ujfLyq1iPTrfgP0k+nHRYc\nz43nmPaXtXT+J9aU06fLC2jA06lLlIliVi28wqimKp6en/J4Pd3lYYgS5MiUzOwS\nUhOeqSIUw/cdasne0+pgO06SkQKBgQC6uFm9jOccBXW4YHrknXBwHgK8bRuSAjZZ\nvt0VsSKUiLq92odcEO6zmkN9N4WDKsCzJDzrc8QKfSfCw/gIvw5YXepY06KtwQFW\nLJuaNu4G2ei/5/fVj/6LBIpPMf1CMl8wHYAS5HfIwXhjTN4eZUW3MWrs1fLRrbgG\nMIMz7boyIQKBgGXkgz9Ty2uzIvJkFw0oMjLXWGj5S6fJgMJmlWiBaayxQIezL/hJ\nPw90gC/vZCUDoSn0BVbJp/y1TRCWJzEmh/+6/G8q8CbCuXizn6mxtnFMt7RmFQ86\nPklFcak2RlKzNwlY8QggP2Is6fPYRkaXh5vx136Y6s4xCsRL6G4NVS7BAoGADTm1\nkYmDbSat2etriPnl1uspQnNv+n2Rn/W27yxmyKKOp5fs8oZ4gdwxX5MpL8s9bvLo\nJb1Da4LF6DO9Q9FUkMnGKZiD806ya4opU1kErxOMOtuRYF0cqHgf29Asoh2zRFMy\nmSP5oAykHFR7fyepMnqbmj7lPhjR6g5RnMH/6EECgYAPs/AZR5lQrmDm/BglKEVa\nusKujERnokAPpb6DL12LzwSJS06DtSQcydHW4sa/5Pyn13NLHtmfSJAdBqgxu9Sw\nnWkvHWzXD3Nho88tmgMXZWpMpWvDUfhsZFs/0rfH+SmwQwhxZSJ5TK2zmc+qmp1T\nAHLyrKN7qlzKYScCVldOSw==\n-----END PRIVATE KEY-----\n",
  "client_email": "mobile-app@proxima-cities-8122097.iam.gserviceaccount.com",
  "client_id": "109388859327466461964",
  "auth_uri": "https://accounts.google.com/o/oauth2/auth",
  "token_uri": "https://oauth2.googleapis.com/token",
  "auth_provider_x509_cert_url": "https://www.googleapis.com/oauth2/v1/certs",
  "client_x509_cert_url": "https://www.googleapis.com/robot/v1/metadata/x509/mobile-app%40proxima-cities-8122097.iam.gserviceaccount.com"
}
