%YAML 1.1
%TAG !u! tag:unity3d.com,2011:
--- !u!114 &11400000
MonoBehaviour:
  m_ObjectHideFlags: 0
  m_CorrespondingSourceObject: {fileID: 0}
  m_PrefabInstance: {fileID: 0}
  m_PrefabAsset: {fileID: 0}
  m_GameObject: {fileID: 0}
  m_Enabled: 1
  m_EditorHideFlags: 0
  m_Script: {fileID: 11500000, guid: 9c754b6abf384a4b8a045b7f5e218053, type: 3}
  m_Name: Translations Displayer
  m_EditorClassIdentifier: 
  importPath: translation
  exportPath: ./Assets/Resources/newTranslation.csv
